…
Using configuration: animals
host: freetestapi.com
API URL: https://freetestapi.com:443/api/site/animals
Response Body: {"objects":50,"name":"Animals","access":"/animals","parameters":[{"name":"id","type":"number"},{"name":"name","type":"string"},{"name":"species","type":"string"},{"name":"family","type":"string"},{"name":"habitat","type":"string"},{"name":"place_of_found","type":"string"},{"name":"diet","type":"string"},{"name":"description","type":"string"},{"name":"weight_kg","type":"number"},{"name":"height_cm","type":"number"},{"name":"image","type":"string"}]}

┌────────┬────────────────────┬──────────────────────┬───────────────────┬───┬─────────────┬──────────────────────┬───────────┬───────────┬──────────────────────┐
│   id   │        name        │       species        │      family       │ … │    diet     │     description      │ weight_kg │ height_cm │        image         │
│ double │      varchar       │       varchar        │      varchar      │   │   varchar   │       varchar        │  double   │  double   │       varchar        │
├────────┼────────────────────┼──────────────────────┼───────────────────┼───┼─────────────┼──────────────────────┼───────────┼───────────┼──────────────────────┤
│    1.0 │ Lion               │ Panthera leo         │ Felidae           │ … │ Carnivore   │ The lion is a larg…  │     190.0 │     120.0 │ https://fakeimg.pl…  │
│    2.0 │ Elephant           │ Loxodonta africana   │ Elephantidae      │ … │ Herbivore   │ The elephant is th…  │    6000.0 │     300.0 │ https://fakeimg.pl…  │
│    3.0 │ Tiger              │ Panthera tigris      │ Felidae           │ … │ Carnivore   │ The tiger is a pow…  │     250.0 │     100.0 │ https://fakeimg.pl…  │
│    4.0 │ Kangaroo           │ Macropus             │ Macropodidae      │ … │ Herbivore   │ Kangaroos are mars…  │      85.0 │     150.0 │ https://fakeimg.pl…  │
│    5.0 │ Gorilla            │ Gorilla beringei     │ Hominidae         │ … │ Herbivore   │ Gorillas are large…  │     180.0 │     160.0 │ https://fakeimg.pl…  │
│    6.0 │ Polar Bear         │ Ursus maritimus      │ Ursidae           │ … │ Carnivore   │ Polar bears are la…  │     500.0 │     130.0 │ https://fakeimg.pl…  │
│    7.0 │ Koala              │ Phascolarctos cine…  │ Phascolarctidae   │ … │ Herbivore   │ Koalas are arborea…  │      12.0 │      60.0 │ https://fakeimg.pl…  │
│    8.0 │ Giraffe            │ Giraffa camelopard…  │ Giraffidae        │ … │ Herbivore   │ Giraffes are the t…  │     800.0 │     550.0 │ https://fakeimg.pl…  │
│    9.0 │ Panda              │ Ailuropoda melanol…  │ Ursidae           │ … │ Herbivore   │ Pandas are bears k…  │      85.0 │      90.0 │ https://fakeimg.pl…  │
│   10.0 │ Cheetah            │ Acinonyx jubatus     │ Felidae           │ … │ Carnivore   │ Cheetahs are the f…  │      50.0 │      80.0 │ https://fakeimg.pl…  │
│   11.0 │ Hippopotamus       │ Hippopotamus amphi…  │ Hippopotamidae    │ … │ Herbivore   │ Hippopotamuses are…  │    2000.0 │     150.0 │ https://fakeimg.pl…  │
│   12.0 │ Chimpanzee         │ Pan troglodytes      │ Hominidae         │ … │ Omnivore    │ Chimpanzees are hi…  │      50.0 │     100.0 │ https://fakeimg.pl…  │
│   13.0 │ Red Panda          │ Ailurus fulgens      │ Ailuridae         │ … │ Omnivore    │ Red pandas are sma…  │       5.0 │      50.0 │ https://fakeimg.pl…  │
│   14.0 │ Komodo Dragon      │ Varanus komodoensis  │ Varanidae         │ … │ Carnivore   │ Komodo dragons are…  │      90.0 │     150.0 │ https://fakeimg.pl…  │
│   15.0 │ Orangutan          │ Pongo                │ Hominidae         │ … │ Omnivore    │ Orangutans are gre…  │      70.0 │     130.0 │ https://fakeimg.pl…  │
│   16.0 │ Platypus           │ Ornithorhynchus an…  │ Ornithorhynchidae │ … │ Carnivore   │ Platypuses are uni…  │       2.0 │      20.0 │ https://fakeimg.pl…  │
│   17.0 │ Sloth              │ Folivora             │ Megalonchidae     │ … │ Herbivore   │ Sloths are slow-mo…  │       5.0 │      60.0 │ https://fakeimg.pl…  │
│   18.0 │ Pangolin           │ Manis                │ Manidae           │ … │ Insectivore │ Pangolins are uniq…  │      10.0 │      40.0 │ https://fakeimg.pl…  │
│   19.0 │ Quokka             │ Setonix brachyurus   │ Macropodidae      │ … │ Herbivore   │ Quokkas are small …  │       3.0 │      40.0 │ https://fakeimg.pl…  │
│   20.0 │ Fennec Fox         │ Vulpes zerda         │ Canidae           │ … │ Omnivore    │ Fennec foxes are s…  │       1.5 │      20.0 │ https://fakeimg.pl…  │
│     ·  │   ·                │      ·               │    ·              │ · │    ·        │          ·           │        ·  │        ·  │          ·           │
│     ·  │   ·                │      ·               │    ·              │ · │    ·        │          ·           │        ·  │        ·  │          ·           │
│     ·  │   ·                │      ·               │    ·              │ · │    ·        │          ·           │        ·  │        ·  │          ·           │
│   31.0 │ Zebra              │ Equus zebra          │ Equidae           │ … │ Herbivore   │ Zebras are strikin…  │     300.0 │     150.0 │ https://fakeimg.pl…  │
│   32.0 │ Arctic Fox         │ Vulpes lagopus       │ Canidae           │ … │ Omnivore    │ Arctic foxes are s…  │       3.5 │      25.0 │ https://fakeimg.pl…  │
│   33.0 │ Gibbon             │ Hylobatidae          │ Hylobatidae       │ … │ Omnivore    │ Gibbons are small …  │       6.5 │      50.0 │ https://fakeimg.pl…  │
│   34.0 │ Fossa              │ Cryptoprocta ferox   │ Eupleridae        │ … │ Carnivore   │ Fossas are carnivo…  │       6.5 │      40.0 │ https://fakeimg.pl…  │
│   35.0 │ Puma               │ Puma concolor        │ Felidae           │ … │ Carnivore   │ Pumas, also known …  │      60.0 │      75.0 │ https://fakeimg.pl…  │
│   36.0 │ Gray Wolf          │ Canis lupus          │ Canidae           │ … │ Carnivore   │ Gray wolves, also …  │      45.0 │      80.0 │ https://fakeimg.pl…  │
│   37.0 │ Bison              │ Bison bison          │ Bovidae           │ … │ Herbivore   │ Bisons are large a…  │     900.0 │     200.0 │ https://fakeimg.pl…  │
│   38.0 │ Gharial            │ Gavialis gangeticus  │ Gavialidae        │ … │ Carnivore   │ Gharials are large…  │     350.0 │     500.0 │ https://fakeimg.pl…  │
│   39.0 │ Black Rhinoceros   │ Diceros bicornis     │ Rhinocerotidae    │ … │ Herbivore   │ Black Rhinoceroses…  │    1400.0 │     160.0 │ https://fakeimg.pl…  │
│   40.0 │ Mandrill           │ Mandrillus sphinx    │ Cercopithecidae   │ … │ Omnivore    │ Mandrills are colo…  │      35.0 │      70.0 │ https://fakeimg.pl…  │
│   41.0 │ Beluga Whale       │ Delphinapterus leu…  │ Monodontidae      │ … │ Carnivore   │ Beluga whales, als…  │    1400.0 │     400.0 │ https://fakeimg.pl…  │
│   42.0 │ Manatee            │ Trichechus           │ Trichechidae      │ … │ Herbivore   │ Manatees, also kno…  │     500.0 │     150.0 │ https://fakeimg.pl…  │
│   43.0 │ Snow Leopard       │ Panthera uncia       │ Felidae           │ … │ Carnivore   │ Snow leopards are …  │      50.0 │      60.0 │ https://fakeimg.pl…  │
│   44.0 │ Leopard Seal       │ Hydrurga leptonyx    │ Phocidae          │ … │ Carnivore   │ Leopard seals are …  │     450.0 │     320.0 │ https://fakeimg.pl…  │
│   45.0 │ Okapi              │ Okapia johnstoni     │ Giraffidae        │ … │ Herbivore   │ Okapis are rare an…  │     250.0 │     150.0 │ https://fakeimg.pl…  │
│   46.0 │ Red-eyed Tree Frog │ Agalychnis callidr…  │ Hylidae           │ … │ Insectivore │ The Red-eyed Tree …  │       0.1 │       7.0 │ https://fakeimg.pl…  │
│   47.0 │ Chameleon          │ Chamaeleonidae       │ Squamata          │ … │ Insectivore │ Chameleons are uni…  │       0.1 │      20.0 │ https://fakeimg.pl…  │
│   48.0 │ Blue Whale         │ Balaenoptera muscu…  │ Balaenopteridae   │ … │ Carnivore   │ The blue whale is …  │  200000.0 │    2500.0 │ https://fakeimg.pl…  │
│   49.0 │ Mongoose           │ Herpestidae          │ Herpestidae       │ … │ Carnivore   │ Mongooses are smal…  │       1.5 │      25.0 │ https://fakeimg.pl…  │
│   50.0 │ Capuchin Monkey    │ Cebus                │ Cebidae           │ … │ Omnivore    │ Capuchin monkeys a…  │       3.9 │      40.0 │ https://fakeimg.pl…  │
├────────┴────────────────────┴──────────────────────┴───────────────────┴───┴─────────────┴──────────────────────┴───────────┴───────────┴──────────────────────┤
│ 50 rows (40 shown)                                                                                                                        11 columns (9 shown) │
└────────────────────────────────────────────────────────────────────────────────────────────────────────────────────────────────────────────────────────────────┘
…
